0	7637
1.50526	918
3.01052	305
4.51578	123
6.02104	65
7.5263	43
9.03156	25
10.5368	25
12.0421	14
13.5473	9
15.0526	5
16.5579	7
18.0631	3
19.5684	3
21.0736	8
22.5789	2
24.0842	0
25.5894	0
27.0947	0
28.5999	0
